module github.com/Yashaswini-Sharma/authcc-backend

go 1.22.4

require github.com/hyperledger/fabric-sdk-go v1.0.0

require (
	github.com/Knetic/govaluate v3.0.0+incompatible // indirect
	github.com/beorn7/perks v1.0.1 // indirect
	github.com/cloudflare/cfssl v1.4.1 // indirect
	github.com/davecgh/go-spew v1.1.1 // indirect
	github.com/fsnotify/fsnotify v1.4.7 // indirect
	github.com/go-kit/kit v0.8.0 // indirect
	github.com/go-logfmt/logfmt v0.4.0 // indirect
	github.com/golang/mock v1.4.3 // indirect
	github.com/golang/protobuf v1.5.4 // indirect
	github.com/google/certificate-transparency-go v1.0.21 // indirect
	github.com/hashicorp/hcl v1.0.0 // indirect
	github.com/hyperledger/fabric-config v0.0.5 // indirect
	github.com/hyperledger/fabric-lib-go v1.0.0 // indirect
	github.com/hyperledger/fabric-protos-go v0.0.0-20200707132912-fee30f3ccd23 // indirect
	github.com/kr/logfmt v0.0.0-20140226030751-b84e30acd515 // indirect
	github.com/magiconair/properties v1.8.1 // indirect
	github.com/matttproud/golang_protobuf_extensions v1.0.1 // indirect
	github.com/mitchellh/mapstructure v1.3.2 // indirect
	github.com/pelletier/go-toml v1.8.0 // indirect
	github.com/pkg/errors v0.8.1 // indirect
	github.com/pmezard/go-difflib v1.0.0 // indirect
	github.com/prometheus/client_golang v1.1.0 // indirect
	github.com/prometheus/client_model v0.0.0-20190812154241-14fe0d1b01d4 // indirect
	github.com/prometheus/common v0.6.0 // indirect
	github.com/prometheus/procfs v0.0.3 // indirect
	github.com/spf13/afero v1.3.1 // indirect
	github.com/spf13/cast v1.3.1 // indirect
	github.com/spf13/jwalterweatherman v1.1.0 // indirect
	github.com/spf13/pflag v1.0.5 // indirect
	github.com/spf13/viper v1.1.1 // indirect
	github.com/stretchr/testify v1.9.0 // indirect
	github.com/weppos/publicsuffix-go v0.5.0 // indirect
	github.com/zmap/zcrypto v0.0.0-20190729165852-9051775e6a2e // indirect
	github.com/zmap/zlint v0.0.0-20190806154020-fd021b4cfbeb // indirect
	golang.org/x/crypto v0.22.0 // indirect
	golang.org/x/net v0.24.0 // indirect
	golang.org/x/sys v0.19.0 // indirect
	golang.org/x/text v0.14.0 // indirect
	google.golang.org/genproto/googleapis/rpc v0.0.0-20240401170217-c3f982113cda // indirect
	google.golang.org/grpc v1.63.2 // indirect
	google.golang.org/protobuf v1.33.0 // indirect
	gopkg.in/yaml.v2 v2.3.0 // indirect
	gopkg.in/yaml.v3 v3.0.1 // indirect
)
