digraph G {
    rankdir=TB;
    size="10,10"
    
    node [shape=record, style=filled, color=lightgray];

    Admin [label="{Admin|+ adminID: String\n+ username: String\n+ password: String|+ createPoll()}"];
    Voter [label="{Voter|+ voterID: String\n+ username: String\n+ password: String|+ authenticate()\n+ castVote(candidate: String)}"];
    Poll [label="{Poll|+ pollID: String\n+ title: String\n+ candidates: String[]\n+ status: String|+ addCandidate()\n+ startPoll()\n+ closePoll()\n+ calculateResults()}"];

    edge [arrowhead="open", style="solid"];
    
    Admin -> Poll [label="creates"];
    Voter -> Poll [label="casts vote in"];
    Poll -> Voter [label="collects votes from"];

    label = "Class Diagram for Decentralized Voting System";
    labelloc = "t";
}
