digraph A {
    node [shape = box; color = blue;];
    edge [color = purple;];
    A [label = "Voter";];
    b [label = "Login/Register";shape = polygon;];
    c [label = "Voting page";shape = polygon;];
    d [label = "Blockchain";shape = polygon;];
    A -> b [label = "Enter"; fontcolor = blue;];
    b -> c [label = "Casted"; fontcolor = blue;];
    c -> d [label = "Add"; fontcolor = blue;];
    d -> b [label = "Changes Updated"; fontcolor = blue;];
}