module authcc/go

go 1.22.4

require (
	github.com/hyperledger/fabric-contract-api-go v1.2.2
	github.com/hyperledger/fabric-sdk-go v1.0.0
)

require (
	github.com/Knetic/govaluate v3.0.0+incompatible // indirect
	github.com/beorn7/perks v1.0.1 // indirect
	github.com/bytedance/sonic v1.11.9 // indirect
	github.com/bytedance/sonic/loader v0.1.1 // indirect
	github.com/cloudflare/cfssl v1.4.1 // indirect
	github.com/cloudwego/base64x v0.1.4 // indirect
	github.com/cloudwego/iasm v0.2.0 // indirect
	github.com/davecgh/go-spew v1.1.1 // indirect
	github.com/fsnotify/fsnotify v1.4.7 // indirect
	github.com/gabriel-vasile/mimetype v1.4.4 // indirect
	github.com/gin-contrib/sse v0.1.0 // indirect
	github.com/gin-gonic/gin v1.10.0 // indirect
	github.com/go-kit/kit v0.8.0 // indirect
	github.com/go-logfmt/logfmt v0.4.0 // indirect
	github.com/go-openapi/jsonpointer v0.20.0 // indirect
	github.com/go-openapi/jsonreference v0.20.2 // indirect
	github.com/go-openapi/spec v0.20.9 // indirect
	github.com/go-openapi/swag v0.22.4 // indirect
	github.com/go-playground/locales v0.14.1 // indirect
	github.com/go-playground/universal-translator v0.18.1 // indirect
	github.com/go-playground/validator/v10 v10.22.0 // indirect
	github.com/gobuffalo/envy v1.10.2 // indirect
	github.com/gobuffalo/packd v1.0.2 // indirect
	github.com/gobuffalo/packr v1.30.1 // indirect
	github.com/goccy/go-json v0.10.3 // indirect
	github.com/golang/mock v1.4.3 // indirect
	github.com/golang/protobuf v1.5.3 // indirect
	github.com/google/certificate-transparency-go v1.0.21 // indirect
	github.com/hashicorp/hcl v1.0.0 // indirect
	github.com/hyperledger/fabric-chaincode-go v0.0.0-20230731094759-d626e9ab09b9 // indirect
	github.com/hyperledger/fabric-config v0.0.5 // indirect
	github.com/hyperledger/fabric-lib-go v1.0.0 // indirect
	github.com/hyperledger/fabric-protos-go v0.3.3 // indirect
	github.com/joho/godotenv v1.5.1 // indirect
	github.com/josharian/intern v1.0.0 // indirect
	github.com/json-iterator/go v1.1.12 // indirect
	github.com/klauspost/cpuid/v2 v2.2.8 // indirect
	github.com/kr/logfmt v0.0.0-20140226030751-b84e30acd515 // indirect
	github.com/leodido/go-urn v1.4.0 // indirect
	github.com/magiconair/properties v1.8.1 // indirect
	github.com/mailru/easyjson v0.7.7 // indirect
	github.com/mattn/go-isatty v0.0.20 // indirect
	github.com/matttproud/golang_protobuf_extensions v1.0.1 // indirect
	github.com/mitchellh/mapstructure v1.3.2 // indirect
	github.com/modern-go/concurrent v0.0.0-20180306012644-bacd9c7ef1dd // indirect
	github.com/modern-go/reflect2 v1.0.2 // indirect
	github.com/pelletier/go-toml v1.8.0 // indirect
	github.com/pelletier/go-toml/v2 v2.2.2 // indirect
	github.com/pkg/errors v0.8.1 // indirect
	github.com/pmezard/go-difflib v1.0.0 // indirect
	github.com/prometheus/client_golang v1.1.0 // indirect
	github.com/prometheus/client_model v0.0.0-20190812154241-14fe0d1b01d4 // indirect
	github.com/prometheus/common v0.6.0 // indirect
	github.com/prometheus/procfs v0.0.3 // indirect
	github.com/rogpeppe/go-internal v1.11.0 // indirect
	github.com/spf13/afero v1.3.1 // indirect
	github.com/spf13/cast v1.3.1 // indirect
	github.com/spf13/jwalterweatherman v1.1.0 // indirect
	github.com/spf13/pflag v1.0.5 // indirect
	github.com/spf13/viper v1.3.2 // indirect
	github.com/stretchr/testify v1.9.0 // indirect
	github.com/twitchyliquid64/golang-asm v0.15.1 // indirect
	github.com/ugorji/go/codec v1.2.12 // indirect
	github.com/weppos/publicsuffix-go v0.5.0 // indirect
	github.com/xeipuuv/gojsonpointer v0.0.0-20190905194746-02993c407bfb // indirect
	github.com/xeipuuv/gojsonreference v0.0.0-20180127040603-bd5ef7bd5415 // indirect
	github.com/xeipuuv/gojsonschema v1.2.0 // indirect
	github.com/zmap/zcrypto v0.0.0-20190729165852-9051775e6a2e // indirect
	github.com/zmap/zlint v0.0.0-20190806154020-fd021b4cfbeb // indirect
	golang.org/x/arch v0.8.0 // indirect
	golang.org/x/crypto v0.25.0 // indirect
	golang.org/x/mod v0.17.0 // indirect
	golang.org/x/net v0.27.0 // indirect
	golang.org/x/sys v0.22.0 // indirect
	golang.org/x/text v0.16.0 // indirect
	google.golang.org/genproto/googleapis/rpc v0.0.0-20231030173426-d783a09b4405 // indirect
	google.golang.org/grpc v1.59.0 // indirect
	google.golang.org/protobuf v1.34.2 // indirect
	gopkg.in/yaml.v2 v2.4.0 // indirect
	gopkg.in/yaml.v3 v3.0.1 // indirect
)
