  digraph g {
    {
      rank=same;  // Nodes on this level should be horizontally aligned
      node [shape=box, style=rounded];  // Default shape for nodes
      credentials [label="User Enters\nCredentials"];
      db [label="Database", shape=cylinder];
      voting_page [label="Voting Page"];
      admin_panel [label="Admin Panel"];
      user -> credentials;
      credentials -> db [label="Checking Credentials"];
      db -> voting_page [label="voter"];
      db -> admin_panel [label="admin"];
    }
    {
      node [shape=box, style=rounded];  // Default shape for nodes
      blockchain [label="Transactions added\nto blockchain"];
      voting_page -> blockchain  [label="Realtime\nupdation"];
      admin_panel -> blockchain;
    }
 
    credentials -> voting_page [style=invis];  // Invisible edge to align voting_page vertically
    admin_panel -> voting_page [style=invis];  // Invisible edge to align voting_page vertically
  }
